<svg width="14" height="10" viewBox="0 0 14 10" fill="none" xmlns="http://www.w3.org/2000/svg">
    <path fill-rule="evenodd" clip-rule="evenodd" d="M7 9.05811C10.866 9.05811 14 7.04339 14 4.55811C14 2.07282 10.866 0.0581055 7 0.0581055C3.13401 0.0581055 0 2.07282 0 4.55811C0 7.04339 3.13401 9.05811 7 9.05811Z" fill="#4339F2"/>
    </svg>
    